…
```r
library(tidyxl)
```

```
## Warning: package 'tidyxl' was built under R version 3.5.2
```

```r
dataset1 <- xlsx_cells('data/attendance.xlsx')
dataset1
```

```
## # A tibble: 1,173 x 21
##    sheet address   row   col is_blank data_type error logical numeric
##    <chr> <chr>   <int> <int> <lgl>    <chr>     <chr> <lgl>     <dbl>
##  1 Tabl… A1          1     1 FALSE    character <NA>  NA           NA
##  2 Tabl… B1          1     2 TRUE     blank     <NA>  NA           NA
##  3 Tabl… C1          1     3 TRUE     blank     <NA>  NA           NA
##  4 Tabl… D1          1     4 TRUE     blank     <NA>  NA           NA
##  5 Tabl… E1          1     5 TRUE     blank     <NA>  NA           NA
##  6 Tabl… F1          1     6 TRUE     blank     <NA>  NA           NA
##  7 Tabl… G1          1     7 TRUE     blank     <NA>  NA           NA
##  8 Tabl… H1          1     8 TRUE     blank     <NA>  NA           NA
##  9 Tabl… I1          1     9 TRUE     blank     <NA>  NA           NA
## 10 Tabl… J1          1    10 TRUE     blank     <NA>  NA           NA
## # … with 1,163 more rows, and 12 more variables: date <dttm>,
## #   character <chr>, character_formatted <list>, formula <chr>,
## #   is_array <lgl>, formula_ref <chr>, formula_group <int>, comment <chr>,
## #   height <dbl>, width <dbl>, style_format <chr>, local_format_id <int>
```
…
```
## Warning: package 'unpivotr' was built under R version 3.5.2
```

```r
dataset1 %>% 
  behead('N', tophead) %>% 
  behead('N', head2) %>% 
  behead('W', State) %>% 
  select(row, col, data_type, numeric, tophead, head2, State)
```

```
## # A tibble: 960 x 7
##      row   col data_type  numeric tophead               head2     State    
##    <int> <int> <chr>        <dbl> <chr>                 <chr>     <chr>    
##  1     5     2 numeric    9.31e+1 Total elementary, se… ADA as p… "   Unit…
##  2     5     3 numeric    2.19e-1 <NA>                  <NA>      "   Unit…
##  3     5     4 numeric    6.64e+0 <NA>                  Average … "   Unit…
##  4     5     5 numeric    1.76e-2 <NA>                  <NA>      "   Unit…
##  5     5     6 numeric    1.80e+2 <NA>                  Average … "   Unit…
##  6     5     7 numeric    1.43e-1 <NA>                  <NA>      "   Unit…
##  7     5     8 numeric    1.19e+3 <NA>                  Average … "   Unit…
##  8     5     9 numeric    3.09e+0 <NA>                  <NA>      "   Unit…
##  9     5    10 numeric    9.40e+1 Elementary schools    ADA as p… "   Unit…
## 10     5    11 numeric    2.69e-1 <NA>                  <NA>      "   Unit…
## # … with 950 more rows
```

We need to separate the statistics and the standard errors from consecutive columns, and 
also make them headers.

```r
dataset1 %>% 
  behead('N', tophead) %>% 
  behead('N', head2) %>% 
  behead('W', State) %>% 
  select(row, col, data_type, numeric, tophead, head2, State) %>% 
  mutate(header = ifelse(col %% 2 == 0, 'stats','se'))
```

```
## # A tibble: 960 x 8
##      row   col data_type  numeric tophead          head2    State    header
##    <int> <int> <chr>        <dbl> <chr>            <chr>    <chr>    <chr> 
##  1     5     2 numeric    9.31e+1 Total elementar… ADA as … "   Uni… stats 
##  2     5     3 numeric    2.19e-1 <NA>             <NA>     "   Uni… se    
##  3     5     4 numeric    6.64e+0 <NA>             Average… "   Uni… stats 
##  4     5     5 numeric    1.76e-2 <NA>             <NA>     "   Uni… se    
##  5     5     6 numeric    1.80e+2 <NA>             Average… "   Uni… stats 
##  6     5     7 numeric    1.43e-1 <NA>             <NA>     "   Uni… se    
##  7     5     8 numeric    1.19e+3 <NA>             Average… "   Uni… stats 
##  8     5     9 numeric    3.09e+0 <NA>             <NA>     "   Uni… se    
##  9     5    10 numeric    9.40e+1 Elementary scho… ADA as … "   Uni… stats 
## 10     5    11 numeric    2.69e-1 <NA>             <NA>     "   Uni… se    
## # … with 950 more rows
```
…
```r
dataset1 %>% 
  behead('N', tophead) %>% 
  behead('N', head2) %>% 
  behead('W', State) %>% 
  select(row, col, data_type, numeric, tophead, head2, State) %>% 
  fill(tophead) %>% 
  fill(head2)
```

```
## # A tibble: 960 x 7
##      row   col data_type  numeric tophead               head2     State    
##    <int> <int> <chr>        <dbl> <chr>                 <chr>     <chr>    
##  1     5     2 numeric    9.31e+1 Total elementary, se… ADA as p… "   Unit…
##  2     5     3 numeric    2.19e-1 Total elementary, se… ADA as p… "   Unit…
##  3     5     4 numeric    6.64e+0 Total elementary, se… Average … "   Unit…
##  4     5     5 numeric    1.76e-2 Total elementary, se… Average … "   Unit…
##  5     5     6 numeric    1.80e+2 Total elementary, se… Average … "   Unit…
##  6     5     7 numeric    1.43e-1 Total elementary, se… Average … "   Unit…
##  7     5     8 numeric    1.19e+3 Total elementary, se… Average … "   Unit…
##  8     5     9 numeric    3.09e+0 Total elementary, se… Average … "   Unit…
##  9     5    10 numeric    9.40e+1 Elementary schools    ADA as p… "   Unit…
## 10     5    11 numeric    2.69e-1 Elementary schools    ADA as p… "   Unit…
## # … with 950 more rows
```
…
```
## # A tibble: 480 x 5
##    tophead                        head2          State            se  stats
##    <chr>                          <chr>          <chr>         <dbl>  <dbl>
##  1 Elementary schools             ADA as percen… "   United … 0.269  9.40e1
##  2 Elementary schools             Average hours… "   United … 0.0160 6.66e0
##  3 Secondary schools              ADA as percen… "   United … 0.432  9.11e1
##  4 Secondary schools              Average hours… "   United … 0.0403 6.59e0
##  5 Total elementary, secondary, … ADA as percen… "   United … 0.219  9.31e1
##  6 Total elementary, secondary, … Average days … "   United … 0.143  1.80e2
##  7 Total elementary, secondary, … Average hours… "   United … 0.0176 6.64e0
##  8 Total elementary, secondary, … Average hours… "   United … 3.09   1.19e3
##  9 Elementary schools             ADA as percen… Alabama ...… 1.84   9.38e1
## 10 Elementary schools             Average hours… Alabama ...… 0.0759 7.04e0
## # … with 470 more rows
```
…
