…
I'll be using the latest `dplyr`, version 0.8.0.9009. If you have 
an older version, most but not all things will work. 

We'll start with the in-build `mtcars` dataset. 


```r
library(tidyverse)
mtcars1 <- mtcars %>% rownames_to_column('cars') %>% as_tibble()
mtcars1
```

```
## # A tibble: 32 x 12
##    cars     mpg   cyl  disp    hp  drat    wt  qsec    vs    am  gear  carb
##    <chr>  <dbl> <dbl> <dbl> <dbl> <dbl> <dbl> <dbl> <dbl> <dbl> <dbl> <dbl>
##  1 Mazda…  21       6  160    110  3.9   2.62  16.5     0     1     4     4
##  2 Mazda…  21       6  160    110  3.9   2.88  17.0     0     1     4     4
##  3 Datsu…  22.8     4  108     93  3.85  2.32  18.6     1     1     4     1
##  4 Horne…  21.4     6  258    110  3.08  3.22  19.4     1     0     3     1
##  5 Horne…  18.7     8  360    175  3.15  3.44  17.0     0     0     3     2
##  6 Valia…  18.1     6  225    105  2.76  3.46  20.2     1     0     3     1
##  7 Duste…  14.3     8  360    245  3.21  3.57  15.8     0     0     3     4
##  8 Merc …  24.4     4  147.    62  3.69  3.19  20       1     0     4     2
##  9 Merc …  22.8     4  141.    95  3.92  3.15  22.9     1     0     4     2
## 10 Merc …  19.2     6  168.   123  3.92  3.44  18.3     1     0     4     4
## # … with 22 more rows
```
…
We can look at a second dataset showing individual violent incidents in Western Afrika
between 2000 and 2017. We can get the number of incidents per country and year very easily using this paradigm.


```r
west_africa <- import('data/2000-01-01-2019-01-01-Western_Africa.csv')
west_africa %>% group_by(country, year) %>% tally()
```

```
## # A tibble: 290 x 3
## # Groups:   country [15]
##    country  year     n
##    <chr>   <int> <int>
##  1 Benin    2000     1
##  2 Benin    2001     3
##  3 Benin    2002     1
##  4 Benin    2003     2
##  5 Benin    2004     2
##  6 Benin    2005     2
##  7 Benin    2006     1
##  8 Benin    2007     3
##  9 Benin    2008     1
## 10 Benin    2009     2
## # … with 280 more rows
```
…
Let's look at these joins with an example. We have two simulated datasets looking at 
DOS real estate allocation and staffing. We will look at how much area on average each
bureau has given the number of employees


```r
staffing_data <- import('data/Staffing_by_Bureau.csv') %>% as_tibble()
real_estate <- import('data/DoS_Real_Estate_Allocation.csv') %>% as_tibble()
real_estate
```

```
## # A tibble: 666 x 4
##    Building Bureau               Location  Size
##    <chr>    <chr>                   <int> <int>
##  1 HST      Administration (A)       4779   640
##  2 SA2      Administration (A)       4801  1090
##  3 HST      Administration (A)       5109  1040
##  4 HST      Administration (A)       3717  1620
##  5 SA4      Administration (A)       3940  1390
##  6 HST      Administration (A)       3661  1480
##  7 HST      Administration (A)       3374  1770
##  8 HST      Administration (A)       3387  1940
##  9 SA10     African Affairs (AF)     2605   640
## 10 HST      African Affairs (AF)     3573   720
## # … with 656 more rows
```

```r
staffing_data
```

```
## # A tibble: 10,000 x 6
##    Bureau                      Gender Grade Title    Name      YearsService
##    <chr>                       <chr>  <chr> <chr>    <chr>            <int>
##  1 Protocol (S/CPR)            female FS1   Manager  Cathy Ca…           13
##  2 Administration (A)          male   GS-9  Team Me… Jeffery …           13
##  3 Intelligence and Research … male   FS-6  Analyst  Max Green           11
##  4 Mission to the United Nati… male   FS-3  Manager  Donald A…            7
##  5 Foreign Missions (OFM)      male   FS-6  Team Me… Thomas L…           22
##  6 International Narcotics an… male   GS-8  Team Me… Joseph A…           12
##  7 Administration (A)          male   GS-12 Analyst  Michael …            6
##  8 Intelligence and Research … male   FS-5  Team Me… Jesus Sh…            2
##  9 Science & Technology Advis… male   N/A   Manager  Lawrence…           19
## 10 Administration (A)          female FS-8  Team Me… Jennie C…           17
## # … with 9,990 more rows
```
…
```
## Joining, by = "Bureau"
```

```
## # A tibble: 54 x 4
##    Bureau                                              Size   Pop unit_area
##    <chr>                                              <int> <int>     <dbl>
##  1 Global Youth Issues (GYI)                           2090   345      6.06
##  2 Policy Planning Staff (S/P)                         2420   240     10.1 
##  3 Science & Technology Adviser (STAS)                 4240   305     13.9 
##  4 Foreign Missions (OFM)                              4420   311     14.2 
##  5 Trafficking in Persons (TIP)                        5150   247     20.9 
##  6 Medical Services (MED)                              6760   308     21.9 
##  7 Protocol (S/CPR)                                    7730   327     23.6 
##  8 Administration (A)                                 10970   454     24.2 
##  9 Oceans and International Environmental and Scient…  8420   330     25.5 
## 10 Energy Resources (ENR)                             10890   369     29.5 
## # … with 44 more rows
```
