…
<img src="lecture_modeling_files/figure-html/unnamed-chunk-14-1.png" width="672" />

```r
autoplot(myLinearModel2, which=1)
```

<img src="lecture_modeling_files/figure-html/unnamed-chunk-15-1.png" width="672" />

```r
d <- broom::augment(myLinearModel2)
d
```

```
# A tibble: 284 x 10
   .rownames  chol log.bili. .fitted .se.fit .resid    .hat .sigma .cooksd
   <chr>     <int>     <dbl>   <dbl>   <dbl>  <dbl>   <dbl>  <dbl>   <dbl>
 1 1           261    2.67      576.    28.1 -315.  0.0181    208. 2.13e-2
 2 2           302    0.0953    321.    13.7  -18.9 0.00433   209. 1.79e-5
 3 3           176    0.336     345.    12.8 -169.  0.00373   209. 1.23e-3
 4 4           244    0.588     370.    12.4 -126.  0.00352   209. 6.41e-4
 5 5           279    1.22      432.    14.6 -153.  0.00487   209. 1.33e-3
 6 6           248   -0.223     289.    15.8  -41.4 0.00571   209. 1.14e-4
 7 7           322    0         311.    14.3   10.5 0.00467   209. 5.98e-6
 8 8           280   -1.20      193.    24.9   87.5 0.0142    209. 1.28e-3
 9 9           562    1.16      426.    14.2  136.  0.00463   209. 9.84e-4
10 10          200    2.53      562.    26.6 -362.  0.0162    208. 2.51e-2
# … with 274 more rows, and 1 more variable: .std.resid <dbl>
```
…
## Many models

```r
mtcars <- as_tibble(mtcars)
mtcars %>% select(mpg, disp:qsec)
```

```
# A tibble: 32 x 6
     mpg  disp    hp  drat    wt  qsec
   <dbl> <dbl> <dbl> <dbl> <dbl> <dbl>
 1  21    160    110  3.9   2.62  16.5
 2  21    160    110  3.9   2.88  17.0
 3  22.8  108     93  3.85  2.32  18.6
 4  21.4  258    110  3.08  3.22  19.4
 5  18.7  360    175  3.15  3.44  17.0
 6  18.1  225    105  2.76  3.46  20.2
 7  14.3  360    245  3.21  3.57  15.8
 8  24.4  147.    62  3.69  3.19  20  
 9  22.8  141.    95  3.92  3.15  22.9
10  19.2  168.   123  3.92  3.44  18.3
# … with 22 more rows
```

```r
mtcars %>% select(mpg, disp:qsec) %>% 
  gather(variable, value, -mpg)
```

```
# A tibble: 160 x 3
     mpg variable value
   <dbl> <chr>    <dbl>
 1  21   disp      160 
 2  21   disp      160 
 3  22.8 disp      108 
 4  21.4 disp      258 
 5  18.7 disp      360 
 6  18.1 disp      225 
 7  14.3 disp      360 
 8  24.4 disp      147.
 9  22.8 disp      141.
10  19.2 disp      168.
# … with 150 more rows
```
…
```r
bl <- mtcars %>% select(mpg, disp:qsec) %>% 
  gather(variable, value, -mpg) %>% 
  nest(-variable)
bl$data[[1]]
```

```
# A tibble: 32 x 2
     mpg value
   <dbl> <dbl>
 1  21    160 
 2  21    160 
 3  22.8  108 
 4  21.4  258 
 5  18.7  360 
 6  18.1  225 
 7  14.3  360 
 8  24.4  147.
 9  22.8  141.
10  19.2  168.
# … with 22 more rows
```
…
