Chapter 11 Modeling | PS_312.utf8
…
d <- broom::augment(myLinearModel2)
d

# A tibble: 284 x 10
   .rownames  chol log.bili. .fitted .se.fit .resid    .hat .sigma .cooksd
   <chr>     <int>     <dbl>   <dbl>   <dbl>  <dbl>   <dbl>  <dbl>   <dbl>
 1 1           261    2.67      576.    28.1 -315.  0.0181    208. 2.13e-2
 2 2           302    0.0953    321.    13.7  -18.9 0.00433   209. 1.79e-5
 3 3           176    0.336     345.    12.8 -169.  0.00373   209. 1.23e-3
 4 4           244    0.588     370.    12.4 -126.  0.00352   209. 6.41e-4
 5 5           279    1.22      432.    14.6 -153.  0.00487   209. 1.33e-3
 6 6           248   -0.223     289.    15.8  -41.4 0.00571   209. 1.14e-4
 7 7           322    0         311.    14.3   10.5 0.00467   209. 5.98e-6
 8 8           280   -1.20      193.    24.9   87.5 0.0142    209. 1.28e-3
 9 9           562    1.16      426.    14.2  136.  0.00463   209. 9.84e-4
10 10          200    2.53      562.    26.6 -362.  0.0162    208. 2.51e-2
# … with 274 more rows, and 1 more variable: .std.resid <dbl>
…
