Chapter 5 Describing data | PS_312.utf8
…
dplyr also has verbs to let stitch datasets together, which are left_join,
right_join, inner_join, outer_join, semi_join, anti_join, bind_rows and
bind_cols.

I’ll be using the latest dplyr, version 0.8.0.9009. If you have
an older version, most but not all things will work.

We’ll start with the in-build mtcars dataset.

library(tidyverse)
mtcars1 <- mtcars %>% rownames_to_column('cars') %>% as_tibble()
mtcars1

## # A tibble: 32 x 12
##    cars     mpg   cyl  disp    hp  drat    wt  qsec    vs    am  gear  carb
##    <chr>  <dbl> <dbl> <dbl> <dbl> <dbl> <dbl> <dbl> <dbl> <dbl> <dbl> <dbl>
##  1 Mazda…  21       6  160    110  3.9   2.62  16.5     0     1     4     4
##  2 Mazda…  21       6  160    110  3.9   2.88  17.0     0     1     4     4
##  3 Datsu…  22.8     4  108     93  3.85  2.32  18.6     1     1     4     1
##  4 Horne…  21.4     6  258    110  3.08  3.22  19.4     1     0     3     1
##  5 Horne…  18.7     8  360    175  3.15  3.44  17.0     0     0     3     2
##  6 Valia…  18.1     6  225    105  2.76  3.46  20.2     1     0     3     1
##  7 Duste…  14.3     8  360    245  3.21  3.57  15.8     0     0     3     4
##  8 Merc …  24.4     4  147.    62  3.69  3.19  20       1     0     4     2
##  9 Merc …  22.8     4  141.    95  3.92  3.15  22.9     1     0     4     2
## 10 Merc …  19.2     6  168.   123  3.92  3.44  18.3     1     0     4     4
## # … with 22 more rows
…
