5.1 Split-apply-combine, a.k.a. MapReduce | PS_312.utf8
…
We can look at a second dataset showing individual violent incidents in Western Afrika
between 2000 and 2017. We can get the number of incidents per country and year very easily using this paradigm.

west_africa <- import('data/2000-01-01-2019-01-01-Western_Africa.csv')
west_africa %>% group_by(country, year) %>% tally()

## # A tibble: 290 x 3
## # Groups:   country [15]
##    country  year     n
##    <chr>   <int> <int>
##  1 Benin    2000     1
##  2 Benin    2001     3
##  3 Benin    2002     1
##  4 Benin    2003     2
##  5 Benin    2004     2
##  6 Benin    2005     2
##  7 Benin    2006     1
##  8 Benin    2007     3
##  9 Benin    2008     1
## 10 Benin    2009     2
## # … with 280 more rows
…
