4.1 Tidy data | PS_312.utf8
…
Notice that the column names contain both sex and age group data. First we’ll gather
the sex/age columns, as before. Note that there are many missing values in this dataset. These
are denoted in R by NA.

tb %>% 
  gather(sex_age, n, -iso2, -year, -fu)

## # A tibble: 109,611 x 5
##    iso2   year    fu sex_age     n
##    <chr> <int> <int> <chr>   <int>
##  1 AD     1989    NA m04        NA
##  2 AD     1990    NA m04        NA
##  3 AD     1991    NA m04        NA
##  4 AD     1992    NA m04        NA
##  5 AD     1993    NA m04        NA
##  6 AD     1994    NA m04        NA
##  7 AD     1996    NA m04        NA
##  8 AD     1997    NA m04        NA
##  9 AD     1998    NA m04        NA
## 10 AD     1999    NA m04        NA
## # … with 109,601 more rows

Since there are a lot of missing values here, we can drop them in the above step by adding an option.

tb %>% gather(sex_age, n, -iso2, -year, -fu, na.rm=T)

## # A tibble: 35,478 x 5
##    iso2   year    fu sex_age     n
##    <chr> <int> <int> <chr>   <int>
##  1 AD     2005     0 m04         0
##  2 AD     2006     0 m04         0
##  3 AD     2008     0 m04         0
##  4 AE     2006    NA m04         0
##  5 AE     2007    NA m04         0
##  6 AE     2008     0 m04         0
##  7 AG     2007    NA m04         0
##  8 AL     2005     0 m04         0
##  9 AL     2006     0 m04         1
## 10 AL     2007     0 m04         0
## # … with 35,468 more rows

We can now use the function separate to separate the data in the sex_age column into sex and age. In this
case we have have the data in a fixed width format (the 1st element is the sex data), so we can use that:

tb %>% 
  gather(sex_age, n, -iso2, -year, -fu, na.rm=T) %>% 
  separate(sex_age, c("sex","age"), sep=1)

## # A tibble: 35,478 x 6
##    iso2   year    fu sex   age       n
##    <chr> <int> <int> <chr> <chr> <int>
##  1 AD     2005     0 m     04        0
##  2 AD     2006     0 m     04        0
##  3 AD     2008     0 m     04        0
##  4 AE     2006    NA m     04        0
##  5 AE     2007    NA m     04        0
##  6 AE     2008     0 m     04        0
##  7 AG     2007    NA m     04        0
##  8 AL     2005     0 m     04        0
##  9 AL     2006     0 m     04        1
## 10 AL     2007     0 m     04        0
## # … with 35,468 more rows

If the data was separated by a symbol, like _, we would use sep = "_" instead.

4.1.3 Variables stored in rows and columns

weather <- import('data/weather.csv') %>% as_tibble()
weather

## # A tibble: 22 x 35
##    id     year month element    d1    d2    d3    d4    d5    d6    d7
##    <chr> <int> <int> <chr>   <dbl> <dbl> <dbl> <dbl> <dbl> <dbl> <dbl>
##  1 MX17…  2010     1 tmax       NA  NA    NA      NA  NA      NA    NA
##  2 MX17…  2010     1 tmin       NA  NA    NA      NA  NA      NA    NA
##  3 MX17…  2010     2 tmax       NA  27.3  24.1    NA  NA      NA    NA
##  4 MX17…  2010     2 tmin       NA  14.4  14.4    NA  NA      NA    NA
##  5 MX17…  2010     3 tmax       NA  NA    NA      NA  32.1    NA    NA
##  6 MX17…  2010     3 tmin       NA  NA    NA      NA  14.2    NA    NA
##  7 MX17…  2010     4 tmax       NA  NA    NA      NA  NA      NA    NA
##  8 MX17…  2010     4 tmin       NA  NA    NA      NA  NA      NA    NA
##  9 MX17…  2010     5 tmax       NA  NA    NA      NA  NA      NA    NA
## 10 MX17…  2010     5 tmin       NA  NA    NA      NA  NA      NA    NA
## # … with 12 more rows, and 24 more variables: d8 <dbl>, d9 <lgl>,
## #   d10 <dbl>, d11 <dbl>, d12 <lgl>, d13 <dbl>, d14 <dbl>, d15 <dbl>,
## #   d16 <dbl>, d17 <dbl>, d18 <lgl>, d19 <lgl>, d20 <lgl>, d21 <lgl>,
## #   d22 <lgl>, d23 <dbl>, d24 <lgl>, d25 <dbl>, d26 <dbl>, d27 <dbl>,
## #   d28 <dbl>, d29 <dbl>, d30 <dbl>, d31 <dbl>

Here, for each year and month, the data for each day of the month is stored in columns. For each
day, two values are noted – the max (tmax) and min (tmin) temperature that day, stored as rows.

We start by gathering the extra columns as before:

weather %>% 
  gather(day, temp, d1:d31)

## # A tibble: 682 x 6
##    id       year month element day    temp
##    <chr>   <int> <int> <chr>   <chr> <dbl>
##  1 MX17004  2010     1 tmax    d1       NA
##  2 MX17004  2010     1 tmin    d1       NA
##  3 MX17004  2010     2 tmax    d1       NA
##  4 MX17004  2010     2 tmin    d1       NA
##  5 MX17004  2010     3 tmax    d1       NA
##  6 MX17004  2010     3 tmin    d1       NA
##  7 MX17004  2010     4 tmax    d1       NA
##  8 MX17004  2010     4 tmin    d1       NA
##  9 MX17004  2010     5 tmax    d1       NA
## 10 MX17004  2010     5 tmin    d1       NA
## # … with 672 more rows

Here’s a new notation – d1:d31. This means all columns starting at d1 and ending at d31. This notation
is originally from creating sequences of numbers. See what happens if you type 1:30 in the console.

Now, for each date, we have two rows of data. These need to be two columns of data. So we need to do the
reverse operation from gather. This is called spread.

weather %>% 
  gather(date, temp, d1:d31) %>% 
  spread(element, temp)

## # A tibble: 341 x 6
##    id       year month date   tmax  tmin
##    <chr>   <int> <int> <chr> <dbl> <dbl>
##  1 MX17004  2010     1 d1       NA    NA
##  2 MX17004  2010     1 d10      NA    NA
##  3 MX17004  2010     1 d11      NA    NA
##  4 MX17004  2010     1 d12      NA    NA
##  5 MX17004  2010     1 d13      NA    NA
##  6 MX17004  2010     1 d14      NA    NA
##  7 MX17004  2010     1 d15      NA    NA
##  8 MX17004  2010     1 d16      NA    NA
##  9 MX17004  2010     1 d17      NA    NA
## 10 MX17004  2010     1 d18      NA    NA
## # … with 331 more rows
…
